{
  "Addr": "localhost:8090",
  "DbInfo": {
    "DataSourceName": "postgres://postgres:Qaz54321@localhost/stchat2?sslmode=disable"
  },
  "LogLevel": 1,
  "UserSessionVirificatorURL": "http://88.198.157.49:8000",
  "StabUserSessionDataVerificator": true,
  "BotSessionVirificatorURL": "http://88.198.157.49:8000/isbot",
  "StabBotSessionDataVerificator": true,
  "SystemUsername": "ede8c0ee-a08d-45fb-bb69-000bcf070c9e",
  "Cert": {
    "Crt":"",
    "Key":""
  }
}
